03-assignment_Voorhies.Rmd
…
#Question 4: Average levels of monthly income by field of education, gender, and job level

## Using Facets

at_sum<-at%>%
  group_by(JobLevel,Education,MonthlyIncome,Gender)%>%
  summarize(MonthlyIncome_avg=mean(MonthlyIncome))%>%
  ungroup()%>%
  arrange(JobLevel)

at_sum

## # A tibble: 1,452 x 5
##    JobLevel Education MonthlyIncome Gender MonthlyIncome_avg
##       <int>     <int>         <int> <chr>              <dbl>
##  1        1         1          1009 Male                1009
##  2        1         1          1052 Male                1052
##  3        1         1          1118 Male                1118
##  4        1         1          1129 Female              1129
##  5        1         1          1483 Female              1483
##  6        1         1          1555 Male                1555
##  7        1         1          1675 Male                1675
##  8        1         1          1904 Male                1904
##  9        1         1          2007 Female              2007
## 10        1         1          2011 Female              2011
## #  with 1,442 more rows
…
