Week 13 Assignment
…
#Question 2: Using a random partition, create 100 separate cross validations

pd_cv<-pd%>%
  crossv_mc(n=1000,test=.2) 
pd_cv

## # A tibble: 1,000 x 3
##    train      test       .id  
##    <list>     <list>     <chr>
##  1 <resample> <resample> 0001 
##  2 <resample> <resample> 0002 
##  3 <resample> <resample> 0003 
##  4 <resample> <resample> 0004 
##  5 <resample> <resample> 0005 
##  6 <resample> <resample> 0006 
##  7 <resample> <resample> 0007 
##  8 <resample> <resample> 0008 
##  9 <resample> <resample> 0009 
## 10 <resample> <resample> 0010 
## #  with 990 more rows

tic()
mod1_rmse_cv<-pd_cv %>%
mutate(train = map(train, as_tibble)) %>% ## Convert to tibbles 
  mutate(model = map(train, ~ lm(mod1_formula, data = .)))%>% 
  mutate(rmse = map2_dbl(model, test, rmse))%>%
select(.id, rmse) ## pull just id and rmse
mod1_rmse_cv 

## # A tibble: 1,000 x 2
##    .id    rmse
##    <chr> <dbl>
##  1 0001  0.212
##  2 0002  0.206
##  3 0003  0.213
##  4 0004  0.218
##  5 0005  0.214
##  6 0006  0.223
##  7 0007  0.213
##  8 0008  0.213
##  9 0009  0.219
## 10 0010  0.216
## #  with 990 more rows
…
